…
```julia
n0 = 34
plt = plot(sol, vars = 1, label = "θ(t)")
scatter!(plt, (0:length(data_x)-n0) ./ 29.5, data_scaled_x[n0:end], label="tracked")
display(plt)
```

\fig{images/0707-Pendulo_angulos_grandes_63_1.png}

```julia
df = CSV.read("../../../_assets/attachments/data/pendulo_70cm_reduzido.csv", DataFrame)
```

```
481×3 DataFrame
 Row │ nf     nx       ny
     │ Int64  Float64  Float64
─────┼─────────────────────────
   1 │    13  848.727  209.073
   2 │    14  847.362  212.843
   3 │    15  846.127  216.006
   4 │    16  844.89   218.281
   5 │    17  843.577  220.369
   6 │    18  842.701  221.178
   7 │    19  842.682  220.634
   8 │    20  842.833  220.468
  ⋮  │   ⋮       ⋮        ⋮
 475 │   487  236.224  348.115
 476 │   488  211.528  329.685
 477 │   489  190.97   312.452
 478 │   490  174.485  297.065
 479 │   491  162.013  283.93
 480 │   492  154.255  274.632
 481 │   493  150.403  268.847
               466 rows omitted
```
…
